%YAML 1.1
%TAG !u! tag:unity3d.com,2011:
--- !u!74 &7400000
AnimationClip:
  m_ObjectHideFlags: 0
  m_PrefabParentObject: {fileID: 0}
  m_PrefabInternal: {fileID: 0}
  m_Name: cam
  serializedVersion: 6
  m_Legacy: 0
  m_Compressed: 0
  m_UseHighQualityCurve: 1
  m_RotationCurves: []
  m_CompressedRotationCurves: []
  m_EulerCurves:
  - curve:
      serializedVersion: 2
      m_Curve:
      - serializedVersion: 2
        time: 0
        value: {x: 0, y: -88.73701, z: 0}
        inSlope: {x: 0, y: 28.81081, z: 0}
        outSlope: {x: 0, y: 28.81081, z: 0}
        tangentMode: 0
      - serializedVersion: 2
        time: 5
        value: {x: 0, y: 55.31704, z: 0}
        inSlope: {x: -3.4173756, y: 22.223774, z: 0}
        outSlope: {x: -3.4173756, y: 22.223774, z: 0}
        tangentMode: 0
      - serializedVersion: 2
        time: 7.6666665
        value: {x: -18.226002, y: 97.01501, z: 0}
        inSlope: {x: 0.4881959, y: 22.654442, z: 0}
        outSlope: {x: 0.4881959, y: 22.654442, z: 0}
        tangentMode: 0
      - serializedVersion: 2
        time: 10
        value: {x: 0, y: 166.25002, z: 0}
        inSlope: {x: 6.928322, y: 18.143818, z: -0.027250001}
        outSlope: {x: 6.928322, y: 18.143818, z: -0.027250001}
        tangentMode: 0
      - serializedVersion: 2
        time: 12
        value: {x: 12.091001, y: 179.481, z: -0.109000005}
        inSlope: {x: 2.8591073, y: 1.9105715, z: -0.020331053}
        outSlope: {x: 2.8591073, y: 1.9105715, z: -0.020331053}
        tangentMode: 0
      - serializedVersion: 2
        time: 19
        value: {x: 9.8, y: 159.92055, z: -0.012134731}
        inSlope: {x: -5.063643, y: -3.2232862, z: 0.012986314}
        outSlope: {x: -5.063643, y: -3.2232862, z: 0.012986314}
        tangentMode: 0
      - serializedVersion: 2
        time: 20
        value: {x: 0, y: 156.26833, z: 0}
        inSlope: {x: -6.0025005, y: -2.9781823, z: 0.0074325227}
        outSlope: {x: -6.0025005, y: -2.9781823, z: 0.0074325227}
        tangentMode: 0
      - serializedVersion: 2
        time: 23
        value: {x: -6.615001, y: 149.3559, z: 0.008190944}
        inSlope: {x: -0.9800004, y: -2.4979386, z: 0.001213473}
        outSlope: {x: -0.9800004, y: -2.4979386, z: 0.001213473}
        tangentMode: 0
      - serializedVersion: 2
        time: 25
        value: {x: -6.125002, y: 143.97243, z: 0.0075842068}
        inSlope: {x: 0.735, y: -3.6191146, z: -0.00091010495}
        outSlope: {x: 0.735, y: -3.6191146, z: -0.00091010495}
        tangentMode: 0
      - serializedVersion: 2
        time: 30
        value: {x: 0, y: 121.23995, z: 0}
        inSlope: {x: 0.6125002, y: -8.273984, z: -0.0007584207}
        outSlope: {x: 0.6125002, y: -8.273984, z: -0.0007584207}
        tangentMode: 0
      - serializedVersion: 2
        time: 32.666668
        value: {x: 0, y: 89.23601, z: 0}
        inSlope: {x: 0.4361592, y: -14.297171, z: 0}
        outSlope: {x: 0.4361592, y: -14.297171, z: 0}
        tangentMode: 0
      - serializedVersion: 2
        time: 40
        value: {x: 6.3970003, y: -32.445, z: 0}
        inSlope: {x: -0.12828189, y: -8.046363, z: 0}
        outSlope: {x: -0.12828189, y: -8.046363, z: 0}
        tangentMode: 0
      - serializedVersion: 2
        time: 45.666668
        value: {x: 0, y: -29.610867, z: 0}
        inSlope: {x: -0.6920444, y: -0.2532904, z: 0}
        outSlope: {x: -0.6920444, y: -0.2532904, z: 0}
        tangentMode: 0
      - serializedVersion: 2
        time: 52
        value: {x: -1.6163082, y: -35.98677, z: 0}
        inSlope: {x: -0.06543761, y: -1.3340237, z: 0}
        outSlope: {x: -0.06543761, y: -1.3340237, z: 0}
        tangentMode: 0
      - serializedVersion: 2
        time: 65
        value: {x: 0, y: -57.584003, z: 0}
        inSlope: {x: 0.1243314, y: -1.6613256, z: 0}
        outSlope: {x: 0.1243314, y: -1.6613256, z: 0}
        tangentMode: 0
      m_PreInfinity: 2
      m_PostInfinity: 2
      m_RotationOrder: 4
    path: 
  m_PositionCurves:
  - curve:
      serializedVersion: 2
      m_Curve:
      - serializedVersion: 2
        time: 0
        value: {x: -5.903, y: 0.51, z: -0.033}
        inSlope: {x: 0.09843931, y: 0.00014923811, z: -0.06640001}
        outSlope: {x: 0.09843931, y: 0.00014923811, z: -0.06640001}
        tangentMode: 0
      - serializedVersion: 2
        time: 5
        value: {x: -5.4108033, y: 0.5107462, z: -0.365}
        inSlope: {x: 0.10588919, y: 0.00070397713, z: 0.0046053007}
        outSlope: {x: 0.10588919, y: 0.00070397713, z: 0.0046053007}
        tangentMode: 0
      - serializedVersion: 2
        time: 7.6666665
        value: {x: -5.108566, y: 0.51410276, z: -0.16337173}
        inSlope: {x: 0.12810825, y: 0.000067652436, z: 0.062456384}
        outSlope: {x: 0.12810825, y: 0.000067652436, z: 0.062456384}
        tangentMode: 0
      - serializedVersion: 2
        time: 10
        value: {x: -4.775185, y: 0.51148146, z: -0.048333332}
        inSlope: {x: 0.17783551, y: -0.004953689, z: -0.04976891}
        outSlope: {x: 0.17783551, y: -0.004953689, z: -0.04976891}
        tangentMode: 0
      - serializedVersion: 2
        time: 12
        value: {x: -4.349598, y: 0.49391353, z: -0.3460133}
        inSlope: {x: 0.2279732, y: -0.006240234, z: -0.20906402}
        outSlope: {x: 0.2279732, y: -0.006240234, z: -0.20906402}
        tangentMode: 0
      - serializedVersion: 2
        time: 19
        value: {x: -2.6475284, y: 0.46803802, z: -2.2310297}
        inSlope: {x: 0.1953406, y: 0.020570666, z: -0.2566291}
        outSlope: {x: 0.1953406, y: 0.020570666, z: -0.2566291}
        tangentMode: 0
      - serializedVersion: 2
        time: 20
        value: {x: -2.5, y: 0.51287585, z: -2.475}
        inSlope: {x: 0.17026421, y: 0.025321344, z: -0.22545779}
        outSlope: {x: 0.17026421, y: 0.025321344, z: -0.22545779}
        tangentMode: 0
      - serializedVersion: 2
        time: 23
        value: {x: -1.921, y: 0.5302904, z: -3.0958362}
        inSlope: {x: 0.09800001, y: 0.029829824, z: -0.19975913}
        outSlope: {x: 0.09800001, y: 0.029829824, z: -0.19975913}
        tangentMode: 0
      - serializedVersion: 2
        time: 25
        value: {x: -1.915, y: 0.638, z: -3.4809818}
        inSlope: {x: -0.047000002, y: 0.12612739, z: -0.18718822}
        outSlope: {x: -0.047000002, y: 0.12612739, z: -0.18718822}
        tangentMode: 0
      - serializedVersion: 2
        time: 30
        value: {x: -2.4, y: 1.63, z: -4.39}
        inSlope: {x: 0.020353291, y: 0.088700004, z: -0.1741012}
        outSlope: {x: 0.020353291, y: 0.088700004, z: -0.1741012}
        tangentMode: 0
      - serializedVersion: 2
        time: 32.666668
        value: {x: -2.0327823, y: 1.574, z: -4.83373}
        inSlope: {x: 0.17540666, y: -0.0087272655, z: -0.13749054}
        outSlope: {x: 0.17540666, y: -0.0087272655, z: -0.13749054}
        tangentMode: 0
      - serializedVersion: 2
        time: 40
        value: {x: -0.47, y: 1.6, z: -5.63}
        inSlope: {x: 0.15305334, y: -0.017677972, z: 0.038611468}
        outSlope: {x: 0.15305334, y: -0.017677972, z: 0.038611468}
        tangentMode: 0
      - serializedVersion: 2
        time: 45.666668
        value: {x: 0.057, y: 1.3795587, z: -4.5771036}
        inSlope: {x: 0.08621053, y: -0.039711334, z: 0.19951317}
        outSlope: {x: 0.08621053, y: -0.039711334, z: 0.19951317}
        tangentMode: 0
      - serializedVersion: 2
        time: 52
        value: {x: 0.56, y: 1.1229241, z: -3.2267034}
        inSlope: {x: -0.013327923, y: -0.040873095, z: 0.21917608}
        outSlope: {x: -0.013327923, y: -0.040873095, z: 0.21917608}
        tangentMode: 0
      - serializedVersion: 2
        time: 65
        value: {x: -0.819, y: 0.587, z: -0.3}
        inSlope: {x: -0.10607692, y: -0.04122493, z: 0.22513103}
        outSlope: {x: -0.10607692, y: -0.04122493, z: 0.22513103}
        tangentMode: 0
      m_PreInfinity: 2
      m_PostInfinity: 2
      m_RotationOrder: 4
    path: 
  m_ScaleCurves: []
  m_FloatCurves: []
  m_PPtrCurves: []
  m_SampleRate: 3
  m_WrapMode: 0
  m_Bounds:
    m_Center: {x: 0, y: 0, z: 0}
    m_Extent: {x: 0, y: 0, z: 0}
  m_ClipBindingConstant:
    genericBindings:
    - serializedVersion: 2
      path: 0
      attribute: 1
      script: {fileID: 0}
      typeID: 4
      customType: 0
      isPPtrCurve: 0
    - serializedVersion: 2
      path: 0
      attribute: 4
      script: {fileID: 0}
      typeID: 4
      customType: 14
      isPPtrCurve: 0
    pptrCurveMapping: []
  m_AnimationClipSettings:
    serializedVersion: 2
    m_AdditiveReferencePoseClip: {fileID: 0}
    m_AdditiveReferencePoseTime: 0
    m_StartTime: 0
    m_StopTime: 65
    m_OrientationOffsetY: 0
    m_Level: 0
    m_CycleOffset: 0
    m_HasAdditiveReferencePose: 0
    m_LoopTime: 0
    m_LoopBlend: 0
    m_LoopBlendOrientation: 0
    m_LoopBlendPositionY: 0
    m_LoopBlendPositionXZ: 0
    m_KeepOriginalOrientation: 0
    m_KeepOriginalPositionY: 1
    m_KeepOriginalPositionXZ: 0
    m_HeightFromFeet: 0
    m_Mirror: 0
  m_EditorCurves:
  - curve:
      serializedVersion: 2
      m_Curve:
      - serializedVersion: 2
        time: 0
        value: -5.903
        inSlope: 0.09843931
        outSlope: 0.09843931
        tangentMode: 34
      - serializedVersion: 2
        time: 5
        value: -5.4108033
        inSlope: 0.10588919
        outSlope: 0.10588919
        tangentMode: 34
      - serializedVersion: 2
        time: 7.6666665
        value: -5.108566
        inSlope: 0.12810825
        outSlope: 0.12810825
        tangentMode: 34
      - serializedVersion: 2
        time: 10
        value: -4.775185
        inSlope: 0.17783551
        outSlope: 0.17783551
        tangentMode: 34
      - serializedVersion: 2
        time: 12
        value: -4.349598
        inSlope: 0.2279732
        outSlope: 0.2279732
        tangentMode: 34
      - serializedVersion: 2
        time: 19
        value: -2.6475284
        inSlope: 0.1953406
        outSlope: 0.1953406
        tangentMode: 34
      - serializedVersion: 2
        time: 20
        value: -2.5
        inSlope: 0.17026421
        outSlope: 0.17026421
        tangentMode: 34
      - serializedVersion: 2
        time: 23
        value: -1.921
        inSlope: 0.09800001
        outSlope: 0.09800001
        tangentMode: 34
      - serializedVersion: 2
        time: 25
        value: -1.915
        inSlope: -0.047000002
        outSlope: -0.047000002
        tangentMode: 34
      - serializedVersion: 2
        time: 30
        value: -2.4
        inSlope: 0.020353291
        outSlope: 0.020353291
        tangentMode: 34
      - serializedVersion: 2
        time: 32.666668
        value: -2.0327823
        inSlope: 0.17540666
        outSlope: 0.17540666
        tangentMode: 34
      - serializedVersion: 2
        time: 40
        value: -0.47
        inSlope: 0.15305334
        outSlope: 0.15305334
        tangentMode: 34
      - serializedVersion: 2
        time: 45.666668
        value: 0.057
        inSlope: 0.08621053
        outSlope: 0.08621053
        tangentMode: 34
      - serializedVersion: 2
        time: 52
        value: 0.56
        inSlope: -0.013327923
        outSlope: -0.013327923
        tangentMode: 34
      - serializedVersion: 2
        time: 65
        value: -0.819
        inSlope: -0.10607692
        outSlope: -0.10607692
        tangentMode: 34
      m_PreInfinity: 2
      m_PostInfinity: 2
      m_RotationOrder: 4
    attribute: m_LocalPosition.x
    path: 
    classID: 4
    script: {fileID: 0}
  - curve:
      serializedVersion: 2
      m_Curve:
      - serializedVersion: 2
        time: 0
        value: 0.51
        inSlope: 0.00014923811
        outSlope: 0.00014923811
        tangentMode: 34
      - serializedVersion: 2
        time: 5
        value: 0.5107462
        inSlope: 0.00070397713
        outSlope: 0.00070397713
        tangentMode: 34
      - serializedVersion: 2
        time: 7.6666665
        value: 0.51410276
        inSlope: 0.000067652436
        outSlope: 0.000067652436
        tangentMode: 34
      - serializedVersion: 2
        time: 10
        value: 0.51148146
        inSlope: -0.004953689
        outSlope: -0.004953689
        tangentMode: 34
      - serializedVersion: 2
        time: 12
        value: 0.49391353
        inSlope: -0.006240234
        outSlope: -0.006240234
        tangentMode: 34
      - serializedVersion: 2
        time: 19
        value: 0.46803802
        inSlope: 0.020570666
        outSlope: 0.020570666
        tangentMode: 34
      - serializedVersion: 2
        time: 20
        value: 0.51287585
        inSlope: 0.025321344
        outSlope: 0.025321344
        tangentMode: 34
      - serializedVersion: 2
        time: 23
        value: 0.5302904
        inSlope: 0.029829824
        outSlope: 0.029829824
        tangentMode: 34
      - serializedVersion: 2
        time: 25
        value: 0.638
        inSlope: 0.12612739
        outSlope: 0.12612739
        tangentMode: 34
      - serializedVersion: 2
        time: 30
        value: 1.63
        inSlope: 0.088700004
        outSlope: 0.088700004
        tangentMode: 34
      - serializedVersion: 2
        time: 32.666668
        value: 1.574
        inSlope: -0.0087272655
        outSlope: -0.0087272655
        tangentMode: 34
      - serializedVersion: 2
        time: 40
        value: 1.6
        inSlope: -0.017677972
        outSlope: -0.017677972
        tangentMode: 34
      - serializedVersion: 2
        time: 45.666668
        value: 1.3795587
        inSlope: -0.039711334
        outSlope: -0.039711334
        tangentMode: 34
      - serializedVersion: 2
        time: 52
        value: 1.1229241
        inSlope: -0.040873095
        outSlope: -0.040873095
        tangentMode: 34
      - serializedVersion: 2
        time: 65
        value: 0.587
        inSlope: -0.04122493
        outSlope: -0.04122493
        tangentMode: 34
      m_PreInfinity: 2
      m_PostInfinity: 2
      m_RotationOrder: 4
    attribute: m_LocalPosition.y
    path: 
    classID: 4
    script: {fileID: 0}
  - curve:
      serializedVersion: 2
      m_Curve:
      - serializedVersion: 2
        time: 0
        value: -0.033
        inSlope: -0.06640001
        outSlope: -0.06640001
        tangentMode: 34
      - serializedVersion: 2
        time: 5
        value: -0.365
        inSlope: 0.0046053007
        outSlope: 0.0046053007
        tangentMode: 34
      - serializedVersion: 2
        time: 7.6666665
        value: -0.16337173
        inSlope: 0.062456384
        outSlope: 0.062456384
        tangentMode: 34
      - serializedVersion: 2
        time: 10
        value: -0.048333332
        inSlope: -0.04976891
        outSlope: -0.04976891
        tangentMode: 34
      - serializedVersion: 2
        time: 12
        value: -0.3460133
        inSlope: -0.20906402
        outSlope: -0.20906402
        tangentMode: 34
      - serializedVersion: 2
        time: 19
        value: -2.2310297
        inSlope: -0.2566291
        outSlope: -0.2566291
        tangentMode: 34
      - serializedVersion: 2
        time: 20
        value: -2.475
        inSlope: -0.22545779
        outSlope: -0.22545779
        tangentMode: 34
      - serializedVersion: 2
        time: 23
        value: -3.0958362
        inSlope: -0.19975913
        outSlope: -0.19975913
        tangentMode: 34
      - serializedVersion: 2
        time: 25
        value: -3.4809818
        inSlope: -0.18718822
        outSlope: -0.18718822
        tangentMode: 34
      - serializedVersion: 2
        time: 30
        value: -4.39
        inSlope: -0.1741012
        outSlope: -0.1741012
        tangentMode: 34
      - serializedVersion: 2
        time: 32.666668
        value: -4.83373
        inSlope: -0.13749054
        outSlope: -0.13749054
        tangentMode: 34
      - serializedVersion: 2
        time: 40
        value: -5.63
        inSlope: 0.038611468
        outSlope: 0.038611468
        tangentMode: 34
      - serializedVersion: 2
        time: 45.666668
        value: -4.5771036
        inSlope: 0.19951317
        outSlope: 0.19951317
        tangentMode: 34
      - serializedVersion: 2
        time: 52
        value: -3.2267034
        inSlope: 0.21917608
        outSlope: 0.21917608
        tangentMode: 34
      - serializedVersion: 2
        time: 65
        value: -0.3
        inSlope: 0.22513103
        outSlope: 0.22513103
        tangentMode: 34
      m_PreInfinity: 2
      m_PostInfinity: 2
      m_RotationOrder: 4
    attribute: m_LocalPosition.z
    path: 
    classID: 4
    script: {fileID: 0}
  - curve:
      serializedVersion: 2
      m_Curve:
      - serializedVersion: 2
        time: 0
        value: 0
        inSlope: 0
        outSlope: 0
        tangentMode: 34
      - serializedVersion: 2
        time: 5
        value: 0
        inSlope: -3.4173756
        outSlope: -3.4173756
        tangentMode: 34
      - serializedVersion: 2
        time: 7.6666665
        value: -18.226002
        inSlope: 0.4881959
        outSlope: 0.4881959
        tangentMode: 34
      - serializedVersion: 2
        time: 10
        value: 0
        inSlope: 6.928322
        outSlope: 6.928322
        tangentMode: 34
      - serializedVersion: 2
        time: 12
        value: 12.091001
        inSlope: 2.8591073
        outSlope: 2.8591073
        tangentMode: 34
      - serializedVersion: 2
        time: 19
        value: 9.8
        inSlope: -5.063643
        outSlope: -5.063643
        tangentMode: 34
      - serializedVersion: 2
        time: 20
        value: 0
        inSlope: -6.0025005
        outSlope: -6.0025005
        tangentMode: 34
      - serializedVersion: 2
        time: 23
        value: -6.615001
        inSlope: -0.9800004
        outSlope: -0.9800004
        tangentMode: 34
      - serializedVersion: 2
        time: 25
        value: -6.125002
        inSlope: 0.735
        outSlope: 0.735
        tangentMode: 34
      - serializedVersion: 2
        time: 30
        value: 0
        inSlope: 0.6125002
        outSlope: 0.6125002
        tangentMode: 34
      - serializedVersion: 2
        time: 32.666668
        value: 0
        inSlope: 0.4361592
        outSlope: 0.4361592
        tangentMode: 34
      - serializedVersion: 2
        time: 40
        value: 6.3970003
        inSlope: -0.12828189
        outSlope: -0.12828189
        tangentMode: 34
      - serializedVersion: 2
        time: 45.666668
        value: 0
        inSlope: -0.6920444
        outSlope: -0.6920444
        tangentMode: 34
      - serializedVersion: 2
        time: 52
        value: -1.6163082
        inSlope: -0.06543761
        outSlope: -0.06543761
        tangentMode: 34
      - serializedVersion: 2
        time: 65
        value: 0
        inSlope: 0.1243314
        outSlope: 0.1243314
        tangentMode: 34
      m_PreInfinity: 2
      m_PostInfinity: 2
      m_RotationOrder: 4
    attribute: localEulerAnglesRaw.x
    path: 
    classID: 4
    script: {fileID: 0}
  - curve:
      serializedVersion: 2
      m_Curve:
      - serializedVersion: 2
        time: 0
        value: -88.73701
        inSlope: 28.81081
        outSlope: 28.81081
        tangentMode: 34
      - serializedVersion: 2
        time: 5
        value: 55.31704
        inSlope: 22.223774
        outSlope: 22.223774
        tangentMode: 34
      - serializedVersion: 2
        time: 7.6666665
        value: 97.01501
        inSlope: 22.654442
        outSlope: 22.654442
        tangentMode: 34
      - serializedVersion: 2
        time: 10
        value: 166.25002
        inSlope: 18.143818
        outSlope: 18.143818
        tangentMode: 34
      - serializedVersion: 2
        time: 12
        value: 179.481
        inSlope: 1.9105715
        outSlope: 1.9105715
        tangentMode: 34
      - serializedVersion: 2
        time: 19
        value: 159.92055
        inSlope: -3.2232862
        outSlope: -3.2232862
        tangentMode: 34
      - serializedVersion: 2
        time: 20
        value: 156.26833
        inSlope: -2.9781823
        outSlope: -2.9781823
        tangentMode: 34
      - serializedVersion: 2
        time: 23
        value: 149.3559
        inSlope: -2.4979386
        outSlope: -2.4979386
        tangentMode: 34
      - serializedVersion: 2
        time: 25
        value: 143.97243
        inSlope: -3.6191146
        outSlope: -3.6191146
        tangentMode: 34
      - serializedVersion: 2
        time: 30
        value: 121.23995
        inSlope: -8.273984
        outSlope: -8.273984
        tangentMode: 34
      - serializedVersion: 2
        time: 32.666668
        value: 89.23601
        inSlope: -14.297171
        outSlope: -14.297171
        tangentMode: 34
      - serializedVersion: 2
        time: 40
        value: -32.445
        inSlope: -8.046363
        outSlope: -8.046363
        tangentMode: 34
      - serializedVersion: 2
        time: 45.666668
        value: -29.610867
        inSlope: -0.2532904
        outSlope: -0.2532904
        tangentMode: 34
      - serializedVersion: 2
        time: 52
        value: -35.98677
        inSlope: -1.3340237
        outSlope: -1.3340237
        tangentMode: 34
      - serializedVersion: 2
        time: 65
        value: -57.584003
        inSlope: -1.6613256
        outSlope: -1.6613256
        tangentMode: 34
      m_PreInfinity: 2
      m_PostInfinity: 2
      m_RotationOrder: 4
    attribute: localEulerAnglesRaw.y
    path: 
    classID: 4
    script: {fileID: 0}
  - curve:
      serializedVersion: 2
      m_Curve:
      - serializedVersion: 2
        time: 0
        value: 0
        inSlope: 0
        outSlope: 0
        tangentMode: 34
      - serializedVersion: 2
        time: 5
        value: 0
        inSlope: 0
        outSlope: 0
        tangentMode: 34
      - serializedVersion: 2
        time: 7.6666665
        value: 0
        inSlope: 0
        outSlope: 0
        tangentMode: 34
      - serializedVersion: 2
        time: 10
        value: 0
        inSlope: -0.027250001
        outSlope: -0.027250001
        tangentMode: 34
      - serializedVersion: 2
        time: 12
        value: -0.109000005
        inSlope: -0.020331053
        outSlope: -0.020331053
        tangentMode: 34
      - serializedVersion: 2
        time: 19
        value: -0.012134731
        inSlope: 0.012986314
        outSlope: 0.012986314
        tangentMode: 34
      - serializedVersion: 2
        time: 20
        value: 0
        inSlope: 0.0074325227
        outSlope: 0.0074325227
        tangentMode: 34
      - serializedVersion: 2
        time: 23
        value: 0.008190944
        inSlope: 0.001213473
        outSlope: 0.001213473
        tangentMode: 34
      - serializedVersion: 2
        time: 25
        value: 0.0075842068
        inSlope: -0.00091010495
        outSlope: -0.00091010495
        tangentMode: 34
      - serializedVersion: 2
        time: 30
        value: 0
        inSlope: -0.0007584207
        outSlope: -0.0007584207
        tangentMode: 34
      - serializedVersion: 2
        time: 32.666668
        value: 0
        inSlope: 0
        outSlope: 0
        tangentMode: 34
      - serializedVersion: 2
        time: 40
        value: 0
        inSlope: 0
        outSlope: 0
        tangentMode: 34
      - serializedVersion: 2
        time: 45.666668
        value: 0
        inSlope: 0
        outSlope: 0
        tangentMode: 34
      - serializedVersion: 2
        time: 52
        value: 0
        inSlope: 0
        outSlope: 0
        tangentMode: 34
      - serializedVersion: 2
        time: 65
        value: 0
        inSlope: 0
        outSlope: 0
        tangentMode: 34
      m_PreInfinity: 2
      m_PostInfinity: 2
      m_RotationOrder: 4
    attribute: localEulerAnglesRaw.z
    path: 
    classID: 4
    script: {fileID: 0}
  m_EulerEditorCurves:
  - curve:
      serializedVersion: 2
      m_Curve: []
      m_PreInfinity: 2
      m_PostInfinity: 2
      m_RotationOrder: 4
    attribute: m_LocalEulerAngles.x
    path: 
    classID: 4
    script: {fileID: 0}
  - curve:
      serializedVersion: 2
      m_Curve: []
      m_PreInfinity: 2
      m_PostInfinity: 2
      m_RotationOrder: 4
    attribute: m_LocalEulerAngles.y
    path: 
    classID: 4
    script: {fileID: 0}
  - curve:
      serializedVersion: 2
      m_Curve: []
      m_PreInfinity: 2
      m_PostInfinity: 2
      m_RotationOrder: 4
    attribute: m_LocalEulerAngles.z
    path: 
    classID: 4
    script: {fileID: 0}
  m_HasGenericRootTransform: 1
  m_HasMotionFloatCurves: 0
  m_GenerateMotionCurves: 0
  m_Events: []
